<svg width="20" height="20" viewBox="0 0 20 20" fill="none" xmlns="http://www.w3.org/2000/svg">
<path d="M12.4498 4.32508C12.7648 3.96198 13.0051 3.54022 13.1566 3.08403C13.3082 2.62783 13.3682 2.14619 13.3331 1.66675C12.3659 1.74482 11.4681 2.19971 10.8331 2.93341C10.5291 3.28506 10.2986 3.69415 10.1555 4.13645C10.0123 4.57876 9.9594 5.04528 9.9998 5.50842C10.4716 5.51235 10.938 5.40766 11.3628 5.20246C11.7876 4.99727 12.1596 4.69706 12.4498 4.32508ZM14.5498 10.5251C14.5554 9.88653 14.7236 9.25993 15.0385 8.70442C15.3535 8.1489 15.8048 7.6828 16.3498 7.35008C16.0058 6.85445 15.5511 6.44578 15.0217 6.15648C14.4923 5.86718 13.9027 5.70521 13.2998 5.68342C11.9998 5.55008 10.7998 6.44175 10.1081 6.44175C9.41647 6.44175 8.44147 5.70008 7.35814 5.71675C6.64991 5.74008 5.95982 5.94657 5.35518 6.31607C4.75053 6.68558 4.25198 7.20548 3.90814 7.82508C2.44147 10.3751 3.53314 14.1667 4.9998 16.2251C5.66647 17.2334 6.4998 18.3751 7.5998 18.3334C8.6998 18.2917 9.05814 17.6501 10.3331 17.6501C11.6081 17.6501 11.9998 18.3334 13.0831 18.3084C14.1665 18.2834 14.9331 17.2751 15.6331 16.2668C16.129 15.5347 16.5164 14.7347 16.7831 13.8917C16.1227 13.6101 15.5592 13.1412 15.1623 12.5428C14.7654 11.9445 14.5525 11.2431 14.5498 10.5251Z" fill="#404258"/>
</svg>
